# Created by Octave 4.0.3, Sat Dec 31 13:31:24 2016 CET <karol@hermes>
# name: email
# type: sq_string
# elements: 1
# length: 18
forgspam@gmail.com


# name: token
# type: sq_string
# elements: 1
# length: 16
laQ8U24vTfEdjF2a


