# Created by Octave 4.0.3, Fri Dec 09 14:19:13 2016 CET <karol@hermes>
# name: email
# type: sq_string
# elements: 1
# length: 18
forgspam@gmail.com


# name: token
# type: sq_string
# elements: 1
# length: 16
stduOovVnWprjEnt


